<?xml version="1.0" encoding="utf-8"?>
<!-- Generator: Adobe Illustrator 16.0.0, SVG Export Plug-In . SVG Version: 6.00 Build 0)  -->
<!DOCTYPE svg PUBLIC "-//W3C//DTD SVG 1.0//EN" "http://www.w3.org/TR/2001/REC-SVG-20010904/DTD/svg10.dtd">
<svg version="1.0" xmlns="http://www.w3.org/2000/svg" xmlns:xlink="http://www.w3.org/1999/xlink" x="0px" y="0px"
	 width="134.279px" height="36.542px" viewBox="0 0 134.279 36.542" enable-background="new 0 0 134.279 36.542"
	 xml:space="preserve">
<g id="guides">
</g>
<g id="lg-site">
	<g>
		<path fill="none" stroke="#FFFFFF" stroke-miterlimit="10" d="M129.376,6.589h-92.48c-2.99,0-5.857-1.028-8.287-2.771
			C25.546,1.622,21.757,0.375,17.67,0.51C8.611,0.809,1.107,8.073,0.536,17.118c-0.651,10.337,7.538,18.924,17.735,18.924
			c3.542,0,6.841-1.039,9.611-2.826c2.137-1.378,4.66-2.033,7.203-2.033h94.29c2.422,0,4.403-1.981,4.403-4.403V10.993
			C133.779,8.571,131.798,6.589,129.376,6.589z"/>
		
			<text transform="matrix(1 0 0 1 43.0889 23.3154)" fill="#FFFFFF" font-family="'Montserrat-Light'" font-size="15.2944" letter-spacing="1">leia mais</text>
		
			<line fill="none" stroke="#FFFFFF" stroke-linecap="round" stroke-miterlimit="10" x1="14.407" y1="11.242" x2="27.885" y2="11.242"/>
		
			<line fill="none" stroke="#FFFFFF" stroke-linecap="round" stroke-miterlimit="10" x1="17.271" y1="14.517" x2="27.885" y2="14.517"/>
		
			<line fill="none" stroke="#FFFFFF" stroke-linecap="round" stroke-miterlimit="10" x1="21.146" y1="17.766" x2="27.885" y2="17.766"/>
		
			<line fill="none" stroke="#FFFFFF" stroke-linecap="round" stroke-miterlimit="10" x1="21.146" y1="21.19" x2="27.885" y2="21.19"/>
		
			<line fill="none" stroke="#FFFFFF" stroke-linecap="round" stroke-miterlimit="10" x1="17.271" y1="24.108" x2="27.885" y2="24.108"/>
		
			<line fill="none" stroke="#FFFFFF" stroke-linecap="round" stroke-miterlimit="10" x1="14.407" y1="27.532" x2="27.885" y2="27.532"/>
		
			<line fill="none" stroke="#FFFFFF" stroke-linecap="round" stroke-miterlimit="10" x1="5.938" y1="19.616" x2="15.438" y2="19.616"/>
		
			<line fill="none" stroke="#FFFFFF" stroke-linecap="round" stroke-miterlimit="10" x1="12.521" y1="16.713" x2="15.438" y2="19.634"/>
		
			<line fill="none" stroke="#FFFFFF" stroke-linecap="round" stroke-miterlimit="10" x1="12.354" y1="22.243" x2="15.438" y2="19.634"/>
	</g>
</g>
</svg>
