<?xml version="1.0" encoding="utf-8"?>
<!-- Generator: Adobe Illustrator 16.0.0, SVG Export Plug-In . SVG Version: 6.00 Build 0)  -->
<!DOCTYPE svg PUBLIC "-//W3C//DTD SVG 1.0//EN" "http://www.w3.org/TR/2001/REC-SVG-20010904/DTD/svg10.dtd">
<svg version="1.0" xmlns="http://www.w3.org/2000/svg" xmlns:xlink="http://www.w3.org/1999/xlink" x="0px" y="0px"
	 width="109.279px" height="36.542px" viewBox="0 0 109.279 36.542" enable-background="new 0 0 109.279 36.542"
	 xml:space="preserve">
<g id="guides">
</g>
<g id="lg-site">
	<g>
		<g>
			<defs>
				<rect id="SVGID_46_" x="-181.887" y="245.267" width="1200" height="541.402"/>
			</defs>
			<clipPath id="SVGID_2_">
				<use xlink:href="#SVGID_46_"  overflow="visible"/>
			</clipPath>
			<g id="JvdQb4.tif_2_" clip-path="url(#SVGID_2_)">
				
					<image overflow="visible" width="1200" height="786" id="Camada_1_9_" xlink:href="C339896EE48E83E4.png"  transform="matrix(1.0008 0 0 1.0008 -182.3496 11.6689)">
				</image>
			</g>
		</g>
		<g>
			<path fill="none" stroke="#FFFFFF" stroke-miterlimit="10" d="M104.376,6.59h-67.48c-2.99,0-5.857-1.028-8.287-2.771
				C25.546,1.623,21.757,0.375,17.67,0.51C8.611,0.81,1.107,8.073,0.536,17.119c-0.652,10.337,7.539,18.924,17.735,18.924
				c3.542,0,6.841-1.038,9.611-2.826c2.137-1.378,4.661-2.033,7.203-2.033h69.29c2.422,0,4.403-1.981,4.403-4.403V10.993
				C108.779,8.571,106.798,6.59,104.376,6.59z"/>
			<path fill="#FFFFFF" d="M12.851,27.947V9.827c0-1.395,1.604-2.179,2.705-1.322l11.642,9.06c0.862,0.671,0.862,1.975,0,2.646
				l-11.642,9.06C14.455,30.125,12.851,29.341,12.851,27.947z"/>
			
				<text transform="matrix(1 0 0 1 38.0889 23.3154)" fill="#FFFFFF" font-family="'Montserrat-Light'" font-size="15.2944" letter-spacing="1">assista</text>
		</g>
	</g>
</g>
</svg>
